<?xml version="1.0" encoding="UTF-8" standalone="no"?>
<svg
   xmlns:dc="http://purl.org/dc/elements/1.1/"
   xmlns:cc="http://creativecommons.org/ns#"
   xmlns:rdf="http://www.w3.org/1999/02/22-rdf-syntax-ns#"
   xmlns:svg="http://www.w3.org/2000/svg"
   xmlns="http://www.w3.org/2000/svg"
   xmlns:sodipodi="http://sodipodi.sourceforge.net/DTD/sodipodi-0.dtd"
   xmlns:inkscape="http://www.inkscape.org/namespaces/inkscape"
   width="16.0px"
   height="16.0px"
   viewBox="0 0 16.0 16.0"
   version="1.1"
   id="SVGRoot"
   sodipodi:docname="movie.svg"
   inkscape:version="1.0.2 (e86c870879, 2021-01-15, custom)">
  <defs
     id="defs5133" />
  <sodipodi:namedview
     id="base"
     pagecolor="#ffffff"
     bordercolor="#666666"
     borderopacity="1.0"
     inkscape:pageopacity="0.0"
     inkscape:pageshadow="2"
     inkscape:zoom="48.1875"
     inkscape:cx="8"
     inkscape:cy="8"
     inkscape:document-units="px"
     inkscape:current-layer="layer1"
     inkscape:document-rotation="0"
     showgrid="true">
    <inkscape:grid
       type="xygrid"
       id="grid5703"
       originx="0.5"
       originy="0.5" />
  </sodipodi:namedview>
  <metadata
     id="metadata5136">
    <rdf:RDF>
      <cc:Work
         rdf:about="">
        <dc:format>image/svg+xml</dc:format>
        <dc:type
           rdf:resource="http://purl.org/dc/dcmitype/StillImage" />
        <dc:title></dc:title>
      </cc:Work>
    </rdf:RDF>
  </metadata>
  <g
     inkscape:label="Layer 1"
     inkscape:groupmode="layer"
     id="layer1">
    <path
       style="fill:none;stroke:#5f8485;stroke-width:1px;stroke-linecap:butt;stroke-linejoin:miter;stroke-opacity:1"
       d="m 0.5,2.5 h 14"
       id="path929" />
    <path
       style="fill:none;stroke:#5f8485;stroke-width:1px;stroke-linecap:butt;stroke-linejoin:miter;stroke-opacity:1"
       d="m 0.5,14.522112 h 14"
       id="path931" />
    <path
       style="fill:none;stroke:#5f8485;stroke-width:1px;stroke-linecap:butt;stroke-linejoin:miter;stroke-opacity:1"
       d="m 0.5,12.522112 h 14"
       id="path933" />
    <path
       style="fill:none;stroke:#5f8485;stroke-width:1px;stroke-linecap:butt;stroke-linejoin:miter;stroke-opacity:1"
       d="m 0.5,4.522704 h 14"
       id="path935" />
    <path
       style="fill:none;stroke:#5f8485;stroke-width:0.945758px;stroke-linecap:butt;stroke-linejoin:miter;stroke-opacity:1"
       d="M 2.5423257,2.5 V 15.022408"
       id="path937" />
    <path
       style="fill:none;stroke:#5f8485;stroke-width:0.93394px;stroke-linecap:butt;stroke-linejoin:miter;stroke-opacity:1"
       d="M 12.5,2.5 V 14.711414"
       id="path939"
       sodipodi:nodetypes="cc" />
    <path
       style="fill:none;stroke:#5f8485;stroke-width:1px;stroke-linecap:butt;stroke-linejoin:miter;stroke-opacity:1"
       d="m 10.5,12.5 v 2"
       id="path949" />
    <path
       style="fill:none;stroke:#5f8485;stroke-width:1px;stroke-linecap:butt;stroke-linejoin:miter;stroke-opacity:1"
       d="m 4.5,12.5 v 2"
       id="path953" />
    <path
       style="fill:#cc70a7;stroke:#c53482;stroke-width:1px;stroke-linecap:butt;stroke-linejoin:miter;stroke-opacity:1;fill-opacity:1"
       d="m 5.5,6.5 4,2 -4,2 z"
       id="path957" />
    <path
       style="fill:none;stroke:#5f8485;stroke-width:1px;stroke-linecap:butt;stroke-linejoin:miter;stroke-opacity:1"
       d="m 6.5,12.5 v 2"
       id="path5771" />
    <path
       style="fill:none;stroke:#5f8485;stroke-width:1px;stroke-linecap:butt;stroke-linejoin:miter;stroke-opacity:1"
       d="m 8.5,12.5 v 2"
       id="path5773" />
    <path
       style="fill:none;stroke:#5f8485;stroke-width:1px;stroke-linecap:butt;stroke-linejoin:miter;stroke-opacity:1"
       d="m 10.5,2.5 v 2"
       id="path5775" />
    <path
       style="fill:none;stroke:#5f8485;stroke-width:1px;stroke-linecap:butt;stroke-linejoin:miter;stroke-opacity:1"
       d="m 4.5,2.5 v 2"
       id="path5777" />
    <path
       style="fill:none;stroke:#5f8485;stroke-width:1px;stroke-linecap:butt;stroke-linejoin:miter;stroke-opacity:1"
       d="m 6.5,2.5 v 2"
       id="path5779" />
    <path
       style="fill:none;stroke:#5f8485;stroke-width:1px;stroke-linecap:butt;stroke-linejoin:miter;stroke-opacity:1"
       d="m 8.5,2.5 v 2"
       id="path5781" />
  </g>
</svg>
