<?xml version="1.0" encoding="UTF-8" standalone="no"?>
<!-- Created with Inkscape (http://www.inkscape.org/) -->

<svg
   width="64"
   height="64"
   viewBox="0 0 64 64.000003"
   version="1.1"
   id="svg1"
   inkscape:version="1.4 (e7c3feb100, 2024-10-09)"
   sodipodi:docname="RPAViewer.svg"
   inkscape:export-filename="../../Pictures/Icons/RPAViewer.png"
   inkscape:export-xdpi="96"
   inkscape:export-ydpi="96"
   xmlns:inkscape="http://www.inkscape.org/namespaces/inkscape"
   xmlns:sodipodi="http://sodipodi.sourceforge.net/DTD/sodipodi-0.dtd"
   xmlns:xlink="http://www.w3.org/1999/xlink"
   xmlns="http://www.w3.org/2000/svg"
   xmlns:svg="http://www.w3.org/2000/svg">
  <sodipodi:namedview
     id="namedview1"
     pagecolor="#505050"
     bordercolor="#eeeeee"
     borderopacity="1"
     inkscape:showpageshadow="0"
     inkscape:pageopacity="0"
     inkscape:pagecheckerboard="true"
     inkscape:deskcolor="#505050"
     inkscape:document-units="px"
     showgrid="true"
     showguides="true"
     inkscape:lockguides="true"
     inkscape:zoom="9.5356902"
     inkscape:cx="30.412062"
     inkscape:cy="31.513188"
     inkscape:window-width="1704"
     inkscape:window-height="878"
     inkscape:window-x="0"
     inkscape:window-y="0"
     inkscape:window-maximized="1"
     inkscape:current-layer="layer1">
    <inkscape:grid
       id="grid1"
       units="px"
       originx="0.50000001"
       originy="0.49999999"
       spacingx="1"
       spacingy="1"
       empcolor="#0099e5"
       empopacity="0.30196078"
       color="#0099e5"
       opacity="0.14901961"
       empspacing="5"
       enabled="true"
       visible="true"
       dotted="true" />
    <sodipodi:guide
       position="3.0412062,47.745278"
       orientation="1,0"
       id="guide2"
       inkscape:locked="true" />
    <sodipodi:guide
       position="60.672145,58.006893"
       orientation="1,0"
       id="guide3"
       inkscape:locked="true" />
    <sodipodi:guide
       position="-15.339985,58.452587"
       orientation="0,-1"
       id="guide4"
       inkscape:locked="true" />
    <sodipodi:guide
       position="2.1674329,13.38014"
       orientation="0,-1"
       id="guide5"
       inkscape:locked="true" />
    <sodipodi:guide
       position="-20.537154,37.724947"
       orientation="1,0"
       id="guide6"
       inkscape:locked="true" />
    <sodipodi:guide
       position="32.534024,46.556079"
       orientation="1,0"
       id="guide7"
       inkscape:locked="true" />
  </sodipodi:namedview>
  <defs
     id="defs1">
    <linearGradient
       inkscape:collect="always"
       xlink:href="#linearGradient3759"
       id="linearGradient3847"
       gradientUnits="userSpaceOnUse"
       x1="6"
       y1="8"
       x2="26"
       y2="24"
       gradientTransform="matrix(1.4428101,0,0,1.3880456,1.1267269,-0.6695812)" />
    <linearGradient
       id="linearGradient3759">
      <stop
         style="stop-color:#a8a9b6;stop-opacity:1;"
         offset="0"
         id="stop3761" />
      <stop
         style="stop-color:#3d3e48;stop-opacity:1;"
         offset="1"
         id="stop3763" />
    </linearGradient>
    <linearGradient
       inkscape:collect="always"
       xlink:href="#linearGradient3759"
       id="linearGradient3849"
       gradientUnits="userSpaceOnUse"
       x1="25.6"
       y1="24.40004"
       x2="7.5999999"
       y2="7.6000671"
       gradientTransform="matrix(1.5947117,0,0,1.5398315,-1.28686,-2.9853771)" />
    <radialGradient
       inkscape:collect="always"
       xlink:href="#linearGradient3781"
       id="radialGradient3851"
       gradientUnits="userSpaceOnUse"
       gradientTransform="matrix(-2.4366106,1.896361,-1.3460335,-1.5917348,87.421701,23.606643)"
       cx="15.294684"
       cy="15.676658"
       fx="15.294684"
       fy="15.676658"
       r="5" />
    <linearGradient
       id="linearGradient3781">
      <stop
         id="stop3783"
         offset="0"
         style="stop-color:#abc6d2;stop-opacity:1;" />
      <stop
         id="stop3785"
         offset="1"
         style="stop-color:#c8cfd1;stop-opacity:0.35135135;" />
    </linearGradient>
    <radialGradient
       inkscape:collect="always"
       xlink:href="#linearGradient3789"
       id="radialGradient3853"
       gradientUnits="userSpaceOnUse"
       gradientTransform="matrix(2.4319391,3.952588,-5.8834508,5.0014393,57.272423,-77.143765)"
       cx="9.16998"
       cy="10.672369"
       fx="9.16998"
       fy="10.672369"
       r="2.493814" />
    <linearGradient
       id="linearGradient3789">
      <stop
         style="stop-color:#f3f2b8;stop-opacity:0.82997924;"
         offset="0"
         id="stop3791" />
      <stop
         style="stop-color:#ffffff;stop-opacity:0;"
         offset="1"
         id="stop3793" />
    </linearGradient>
    <linearGradient
       inkscape:collect="always"
       xlink:href="#linearGradient3803"
       id="linearGradient3996"
       gradientUnits="userSpaceOnUse"
       gradientTransform="matrix(1.0726135,-1.2162257,1.2748585,1.0342085,-12.23687,24.220368)"
       x1="11.616754"
       y1="30.511734"
       x2="18.372149"
       y2="30.511734" />
    <linearGradient
       id="linearGradient3803">
      <stop
         style="stop-color:#575757;stop-opacity:1;"
         offset="0"
         id="stop3805" />
      <stop
         id="stop3811"
         offset="0.2361111"
         style="stop-color:#a5a5a5;stop-opacity:1;" />
      <stop
         style="stop-color:#575757;stop-opacity:1;"
         offset="1"
         id="stop3807" />
    </linearGradient>
    <linearGradient
       inkscape:collect="always"
       xlink:href="#linearGradient3821"
       id="linearGradient3993"
       gradientUnits="userSpaceOnUse"
       gradientTransform="matrix(1.0726135,-1.2162257,1.6750384,1.358848,-27.027697,12.163454)"
       x1="12.000638"
       y1="40.644829"
       x2="18.114534"
       y2="40.644829" />
    <linearGradient
       id="linearGradient3821">
      <stop
         id="stop3823"
         offset="0"
         style="stop-color:#12171c;stop-opacity:1;" />
      <stop
         style="stop-color:#a2abb2;stop-opacity:1;"
         offset="0.33333334"
         id="stop3825" />
      <stop
         id="stop3827"
         offset="1"
         style="stop-color:#0a101b;stop-opacity:1;" />
    </linearGradient>
  </defs>
  <g
     inkscape:label="Layer 1"
     inkscape:groupmode="layer"
     id="layer1">
    <path
       style="fill:#7958ca;fill-opacity:1;stroke:#000000;stroke-width:1.17892;stroke-dasharray:none;stroke-opacity:1"
       d="M 1.0616433,1.1041548 31.689526,7.3083459 63.026933,0.84564672 63.145187,56.554112 31.689526,63.146065 0.82513457,56.554112 Z"
       id="path1"
       sodipodi:nodetypes="ccccccc" />
    <path
       style="fill:#f2f1d6;fill-opacity:1;stroke:#000000;stroke-width:1.17892;stroke-dasharray:none;stroke-opacity:1"
       d="m 3.544985,3.6892344 3.4293766,-1.680302 c 0,0 10.7720654,-0.014201 16.4980774,0.6411246 5.726015,0.655326 6.405978,1.9801792 7.980579,4.6582889 C 32.909363,4.4285342 34.357977,3.362189 40.527445,2.7572886 46.696912,2.1523882 57.587232,2.0089324 57.587232,2.0089324 L 61.134864,3.8184882 61.016609,54.873811 31.689526,60.819494 3.0719677,55.003065 Z"
       id="path7"
       sodipodi:nodetypes="ccscscccccc" />
    <path
       style="fill:none;stroke:#000000;stroke-width:1.17892;stroke-dasharray:none;stroke-opacity:1"
       d="M 6.619599,2.2674406 6.9743616,52.417985 c 0,0 12.1448354,1.3213 17.9511814,2.644377 5.806344,1.323078 5.2742,2.647931 6.882236,5.757132 3.925599,-6.448491 3.192869,-4.480805 7.390899,-5.881057 4.19803,-1.400252 17.797282,-2.520452 17.797282,-2.520452 L 57.468977,2.0089324"
       id="path8"
       sodipodi:nodetypes="ccsczcc" />
    <path
       style="fill:none;stroke:#000000;stroke-width:1.17892;stroke-dasharray:none;stroke-opacity:1"
       d="M 6.7378533,51.900968 3.190222,55.003065"
       id="path9" />
    <path
       style="fill:none;stroke:#000000;stroke-width:1.17892;stroke-dasharray:none;stroke-opacity:1"
       d="m 56.877706,52.547237 4.138903,2.326574"
       id="path10" />
    <path
       style="fill:none;stroke:#000000;stroke-width:1.17892;stroke-dasharray:none;stroke-opacity:1"
       d="M 31.80778,61.078001 31.926034,56.683365 31.453017,7.0498372"
       id="path11" />
    <text
       xml:space="preserve"
       style="font-style:italic;font-variant:normal;font-weight:bold;font-stretch:normal;font-size:21.3333px;font-family:'DejaVu Serif';-inkscape-font-specification:'DejaVu Serif Bold Italic';text-align:start;writing-mode:lr-tb;direction:ltr;text-anchor:start;fill:#448219;fill-opacity:1;stroke:none;stroke-width:1.17892;stroke-dasharray:none;stroke-opacity:1"
       x="9.6147308"
       y="35.381443"
       id="text11"
       transform="scale(0.95650367,1.0454743)"><tspan
         sodipodi:role="line"
         id="tspan11"
         x="9.6147308"
         y="35.381443"
         style="font-style:italic;font-variant:normal;font-weight:bold;font-stretch:normal;font-size:21.3333px;font-family:'DejaVu Serif';-inkscape-font-specification:'DejaVu Serif Bold Italic';fill:#448219;fill-opacity:1;stroke:none;stroke-width:1.17892">RPA</tspan></text>
    <g
       id="g1"
       transform="translate(6.8701578,8.1338232)">
      <ellipse
         style="fill:none;stroke:url(#linearGradient3847);stroke-width:1.706;stroke-linecap:round;stroke-linejoin:miter;stroke-miterlimit:4;stroke-dasharray:none;stroke-opacity:1"
         id="path3757"
         cx="24.211689"
         cy="21.53915"
         rx="21.513512"
         ry="20.864958" />
      <ellipse
         style="fill:none;stroke:#636576;stroke-width:2.056;stroke-linecap:round;stroke-linejoin:miter;stroke-miterlimit:4;stroke-dasharray:none;stroke-opacity:1"
         id="path3755"
         cx="24.164032"
         cy="21.535479"
         rx="20.406872"
         ry="19.79295" />
      <ellipse
         id="path3767"
         style="fill:none;stroke:url(#linearGradient3849);stroke-width:0.835986;stroke-linecap:round;stroke-linejoin:miter;stroke-miterlimit:4;stroke-dasharray:none;stroke-opacity:1"
         cx="24.228527"
         cy="21.651926"
         rx="19.136541"
         ry="18.477978" />
      <ellipse
         style="fill:url(#radialGradient3851);fill-opacity:1;stroke:none"
         id="path3771"
         cx="24.239599"
         cy="21.667004"
         rx="18.589878"
         ry="17.865309" />
      <ellipse
         style="fill:url(#radialGradient3853);fill-opacity:1;stroke:none"
         id="path3787"
         cx="24.328259"
         cy="21.744001"
         rx="18.733295"
         ry="18.016064" />
      <path
         style="fill:url(#linearGradient3996);fill-opacity:1;stroke:none;stroke-width:1.3066"
         d="m 36.643922,39.599603 c 0,0 3.2181,-2.408729 4.425754,-3.778077 1.207655,-1.369347 2.855889,-4.080865 2.855889,-4.080865 l 4.285294,4.766588 -5.417516,6.142867 z"
         id="path3799"
         inkscape:connector-curvature="0"
         sodipodi:nodetypes="czcccc" />
      <path
         style="fill:url(#linearGradient3993);fill-opacity:1;stroke:none;stroke-width:1.3066"
         d="m 42.806262,42.47078 c 0,0 17.325388,14.369261 23.447407,19.284775 2.18271,1.752537 7.553958,-4.543438 5.379421,-6.305492 C 65.147323,50.194639 48.020494,36.558167 48.020494,36.558167 Z"
         id="path3801"
         inkscape:connector-curvature="0"
         sodipodi:nodetypes="csscc" />
    </g>
  </g>
</svg>
